…
    ## # Groups:   song [10]
    ##    song                             performer                            count
    ##    <chr>                            <chr>                                <int>
    ##  1 Radioactive                      Imagine Dragons                         87
    ##  2 Sail                             AWOLNATION                              79
    ##  3 Blinding Lights                  The Weeknd                              76
    ##  4 I'm Yours                        Jason Mraz                              76
    ##  5 How Do I Live                    LeAnn Rimes                             69
    ##  6 Counting Stars                   OneRepublic                             68
    ##  7 Party Rock Anthem                LMFAO Featuring Lauren Bennett & Go~    68
    ##  8 Foolish Games/You Were Meant Fo~ Jewel                                   65
    ##  9 Rolling In The Deep              Adele                                   65
    ## 10 Before He Cheats                 Carrie Underwood                        64

    ## # A tibble: 34,467 x 3
    ## # Groups:   year [62]
    ##     year song                                       count
    ##    <int> <chr>                                      <int>
    ##  1  1959 "\"Yep!\""                                     9
    ##  2  1959 "('til) I Kissed You"                         16
    ##  3  1959 "(All of a Sudden) My Heart Sings"            15
    ##  4  1959 "(I'll Be With You In) Apple Blossom Time"    11
    ##  5  1959 "(I Don't Care) Only Love Me"                  4
    ##  6  1959 "(I Wanna) Dance With The Teacher"             3
    ##  7  1959 "(If You Cry) True Love, True Love"            9
    ##  8  1959 "(New In) The Ways Of Love"                    7
    ##  9  1959 "(Night Time Is) The Right Time"               1
    ## 10  1959 "(Now and Then There's) A Fool Such As I"     15
    ## # ... with 34,457 more rows

    ## # A tibble: 62 x 2
    ##     year no_of_unique_songs
    ##    <int>              <int>
    ##  1  1959                641
    ##  2  1960                668
    ##  3  1961                747
    ##  4  1962                748
    ##  5  1963                739
    ##  6  1964                786
    ##  7  1965                773
    ##  8  1966                803
    ##  9  1967                802
    ## 10  1968                746
    ## # ... with 52 more rows
…
    ## # A tibble: 14,807 x 3
    ## # Groups:   performer [6,126]
    ##    performer                song                                            n1
    ##    <chr>                    <chr>                                        <int>
    ##  1 'N Sync                  (God Must Have Spent) A Little More Time On~    22
    ##  2 'N Sync                  Bye Bye Bye                                     23
    ##  3 'N Sync                  Gone                                            24
    ##  4 'N Sync                  I Drive Myself Crazy                            12
    ##  5 'N Sync                  I Want You Back                                 24
    ##  6 'N Sync                  It's Gonna Be Me                                25
    ##  7 'N Sync                  Pop                                             15
    ##  8 'N Sync                  This I Promise You                              26
    ##  9 'N Sync & Gloria Estefan Music Of My Heart                               20
    ## 10 'N Sync Featuring Nelly  Girlfriend                                      20
    ## # ... with 14,797 more rows
…
Q3\] Olympics Wrangling

    ## # A tibble: 847 x 2
    ##    name                                      ht
    ##    <chr>                                  <dbl>
    ##  1 "Aeriwentha Mae Faggs (-Starr)"          158
    ##  2 "Agnes Osazuwa (-Olatunji)"              162
    ##  3 "Aikaterini \"Ekaterini\" Stefanidi"     173
    ##  4 "Aikaterini Thanou"                      165
    ##  5 "Aileen Aletha Meagher"                  168
    ##  6 "Aleen May Bailey"                       170
    ##  7 "Aleksandra Andreyevna Fedoriva"         176
    ##  8 "Aleksandra Georgiyevna Chudina"         188
    ##  9 "Alexandra Angela \"Sandie\" Richards"   175
    ## 10 "Alice Marie Coachman (-Davis)"          170
    ## # ... with 837 more rows

    ## 95% 
    ## 183

    ## [1] "The 95th percentile height of female athletes is 183"

    ## # A tibble: 132 x 2
    ##    event                                 variation
    ##    <chr>                                     <dbl>
    ##  1 Rowing Women's Coxed Fours                10.9 
    ##  2 Basketball Women's Basketball              9.70
    ##  3 Rowing Women's Coxed Quadruple Sculls      9.25
    ##  4 Rowing Women's Coxed Eights                8.74
    ##  5 Swimming Women's 100 metres Butterfly      8.13
    ##  6 Volleyball Women's Volleyball              8.10
    ##  7 Gymnastics Women's Uneven Bars             8.02
    ##  8 Shooting Women's Double Trap               7.83
    ##  9 Cycling Women's Keirin                     7.76
    ## 10 Swimming Women's 400 metres Freestyle      7.62
    ## # ... with 122 more rows

    ## [1] 10.86549

    ## [1] "Highest variation (measured in terms of std dev) is in Rowing Women's Coxed Fours event followed by Women's basketball"

    ## # A tibble: 28 x 2
    ##     year  agem
    ##    <int> <dbl>
    ##  1  1900  18  
    ##  2  1904  20.1
    ##  3  1906  22  
    ##  4  1908  23.5
    ##  5  1912  27  
    ##  6  1920  26  
    ##  7  1924  32  
    ##  8  1928  23.5
    ##  9  1932  19  
    ## 10  1936  21  
    ## # ... with 18 more rows
…
    ##  6  1968  17.5
    ##  7  1972  17  
    ##  8  1976  17.2
    ##  9  1980  17.2
    ## 10  1984  18.9
    ## 11  1988  19.3
    ## 12  1992  19.2
    ## 13  1996  21.1
    ## 14  2000  22.5
    ## 15  2004  22.1
    ## 16  2008  22.3
    ## 17  2012  22.0
    ## 18  2016  22.4

    ## # A tibble: 28 x 2
    ##     year ageall
    ##    <int>  <dbl>
    ##  1  1900   18  
    ##  2  1904   20.1
    ##  3  1906   22  
    ##  4  1908   23.5
    ##  5  1912   27  
    ##  6  1920   26  
    ##  7  1924   23.6
    ##  8  1928   23.5
    ##  9  1932   19  
    ## 10  1936   21  
    ## # ... with 18 more rows
…
